SD4_MAC/wave.vcd
$date
	Tue Nov 23 12:30:25 2021
$end
$version
	Icarus Verilog
$end
$timescale
	1s
$end
$scope module PE_tb $end
$var wire 16 ! psum_out [15:0] $end
$var reg 1 " clk $end
$var reg 1 # en $end
$var reg 5 $ exp_bias [4:0] $end
$var reg 24 % image [23:0] $end
$var reg 16 & psum [15:0] $end
$var reg 1 ' rst $end
$var reg 36 ( weight [35:0] $end
$scope module PE1 $end
$var wire 1 " clk $end
$var wire 1 # en $end
$var wire 5 ) exp_bias [4:0] $end
$var wire 24 * image_in [23:0] $end
$var wire 16 + psum [15:0] $end
$var wire 1 , rsk $end
$var wire 1 ' rst $end
$var wire 36 - weight [35:0] $end
$var wire 16 . psum_out [15:0] $end
$var wire 36 / o_weight [35:0] $end
$var wire 16 0 mac_out_w [15:0] $end
$var wire 72 1 image [71:0] $end
$var reg 16 2 mac_out_r [15:0] $end
$var reg 12 3 mantissa_1 [11:0] $end
$var reg 12 4 mantissa_2 [11:0] $end
$var reg 12 5 mantissa_temp [11:0] $end
$var reg 5 6 psum_out_exp [4:0] $end
$var reg 10 7 psum_out_mantissa [9:0] $end
$var reg 1 8 psum_out_sign $end
$scope module clock_gating $end
$var wire 1 " clk $end
$var wire 1 # en $end
$var wire 1 9 en_w $end
$var wire 36 : i_weight [35:0] $end
$var wire 36 ; i_weight_w [35:0] $end
$var reg 1 < dff_clk $end
$var reg 1 = en_r $end
$var reg 36 > o_weight [35:0] $end
$upscope $end
$scope module img_buff $end
$var wire 1 " clk $end
$var wire 24 ? image_in [23:0] $end
$var wire 1 ' rst $end
$var reg 24 @ image1 [23:0] $end
$var reg 24 A image2 [23:0] $end
$var reg 24 B image3 [23:0] $end
$var reg 72 C image_out [71:0] $end
$upscope $end
$scope module mac $end
$var wire 1 " clk $end
$var wire 5 D exp_bias [4:0] $end
$var wire 5 E exp_bias_out [4:0] $end
$var wire 72 F image [71:0] $end
$var wire 1 , rst $end
$var wire 36 G weight [35:0] $end
$var wire 36 H weight_out [35:0] $end
$var wire 20 I signed_sum_out [19:0] $end
$var wire 20 J signed_sum [19:0] $end
$var wire 1 K sign_out $end
$var wire 1 L sign $end
$var wire 5 M pp_8_out [4:0] $end
$var wire 5 N pp_8 [4:0] $end
$var wire 5 O pp_7_out [4:0] $end
$var wire 5 P pp_7 [4:0] $end
$var wire 5 Q pp_6_out [4:0] $end
$var wire 5 R pp_6 [4:0] $end
$var wire 5 S pp_5_out [4:0] $end
$var wire 5 T pp_5 [4:0] $end
$var wire 5 U pp_4_out [4:0] $end
$var wire 5 V pp_4 [4:0] $end
$var wire 5 W pp_3_out [4:0] $end
$var wire 5 X pp_3 [4:0] $end
$var wire 5 Y pp_2_out [4:0] $end
$var wire 5 Z pp_2 [4:0] $end
$var wire 5 [ pp_1_out [4:0] $end
$var wire 5 \ pp_1 [4:0] $end
$var wire 5 ] pp_0_out [4:0] $end
$var wire 5 ^ pp_0 [4:0] $end
$var wire 16 _ out [15:0] $end
$var wire 11 ` norm_sum_out [10:0] $end
$var wire 11 a norm_sum [10:0] $end
$var wire 72 b image_out [71:0] $end
$var wire 6 c exp_max_out_out [5:0] $end
$var wire 5 d exp_max_out [4:0] $end
$var wire 5 e exp_max [4:0] $end
$var wire 7 f exp_final_out [6:0] $end
$var wire 7 g exp_final [6:0] $end
$var wire 5 h exp_8_out [4:0] $end
$var wire 5 i exp_8 [4:0] $end
$var wire 5 j exp_7_out [4:0] $end
$var wire 5 k exp_7 [4:0] $end
$var wire 5 l exp_6_out [4:0] $end
$var wire 5 m exp_6 [4:0] $end
$var wire 5 n exp_5_out [4:0] $end
$var wire 5 o exp_5 [4:0] $end
$var wire 5 p exp_4_out [4:0] $end
$var wire 5 q exp_4 [4:0] $end
$var wire 5 r exp_3_out [4:0] $end
$var wire 5 s exp_3 [4:0] $end
$var wire 5 t exp_2_out [4:0] $end
$var wire 5 u exp_2 [4:0] $end
$var wire 5 v exp_1_out [4:0] $end
$var wire 5 w exp_1 [4:0] $end
$var wire 5 x exp_0_out [4:0] $end
$var wire 5 y exp_0 [4:0] $end
$var wire 16 z aligned_pp_8_out [15:0] $end
$var wire 16 { aligned_pp_8 [15:0] $end
$var wire 16 | aligned_pp_7_out [15:0] $end
$var wire 16 } aligned_pp_7 [15:0] $end
$var wire 16 ~ aligned_pp_6_out [15:0] $end
$var wire 16 !" aligned_pp_6 [15:0] $end
$var wire 16 "" aligned_pp_5_out [15:0] $end
$var wire 16 #" aligned_pp_5 [15:0] $end
$var wire 16 $" aligned_pp_4_out [15:0] $end
$var wire 16 %" aligned_pp_4 [15:0] $end
$var wire 16 &" aligned_pp_3_out [15:0] $end
$var wire 16 '" aligned_pp_3 [15:0] $end
$var wire 16 (" aligned_pp_2_out [15:0] $end
$var wire 16 )" aligned_pp_2 [15:0] $end
$var wire 16 *" aligned_pp_1_out [15:0] $end
$var wire 16 +" aligned_pp_1 [15:0] $end
$var wire 16 ," aligned_pp_0_out [15:0] $end
$var wire 16 -" aligned_pp_0 [15:0] $end
$scope module add $end
$var wire 16 ." aligned_pp_8 [15:0] $end
$var wire 16 /" aligned_pp_7 [15:0] $end
$var wire 16 0" aligned_pp_6 [15:0] $end
$var wire 16 1" aligned_pp_5 [15:0] $end
$var wire 16 2" aligned_pp_4 [15:0] $end
$var wire 16 3" aligned_pp_3 [15:0] $end
$var wire 16 4" aligned_pp_2 [15:0] $end
$var wire 16 5" aligned_pp_1 [15:0] $end
$var wire 16 6" aligned_pp_0 [15:0] $end
$var reg 20 7" signed_sum [19:0] $end
$var reg 17 8" sum01 [16:0] $end
$var reg 18 9" sum0123 [17:0] $end
$var reg 19 :" sum01234567 [18:0] $end
$var reg 17 ;" sum23 [16:0] $end
$var reg 17 <" sum45 [16:0] $end
$var reg 18 =" sum4567 [17:0] $end
$var reg 17 >" sum67 [16:0] $end
$upscope $end
$scope module add_nor $end
$var wire 1 " clk $end
$var wire 6 ?" exp_max_in [5:0] $end
$var wire 1 , rst $end
$var wire 20 @" signed_sum_in [19:0] $end
$var reg 6 A" exp_max_out [5:0] $end
$var reg 20 B" signed_sum_out [19:0] $end
$upscope $end
$scope module align0 $end
$var wire 5 C" signed_pp [4:0] $end
$var wire 5 D" exp_max [4:0] $end
$var wire 5 E" exp [4:0] $end
$var reg 16 F" aligned_pp [15:0] $end
$var reg 5 G" exp_diff [4:0] $end
$var reg 15 H" pp_shifted [14:0] $end
$upscope $end
$scope module align1 $end
$var wire 5 I" signed_pp [4:0] $end
$var wire 5 J" exp_max [4:0] $end
$var wire 5 K" exp [4:0] $end
$var reg 16 L" aligned_pp [15:0] $end
$var reg 5 M" exp_diff [4:0] $end
$var reg 15 N" pp_shifted [14:0] $end
$upscope $end
$scope module align2 $end
$var wire 5 O" signed_pp [4:0] $end
$var wire 5 P" exp_max [4:0] $end
$var wire 5 Q" exp [4:0] $end
$var reg 16 R" aligned_pp [15:0] $end
$var reg 5 S" exp_diff [4:0] $end
$var reg 15 T" pp_shifted [14:0] $end
$upscope $end
$scope module align3 $end
$var wire 5 U" signed_pp [4:0] $end
$var wire 5 V" exp_max [4:0] $end
$var wire 5 W" exp [4:0] $end
$var reg 16 X" aligned_pp [15:0] $end
$var reg 5 Y" exp_diff [4:0] $end
$var reg 15 Z" pp_shifted [14:0] $end
$upscope $end
$scope module align4 $end
$var wire 5 [" signed_pp [4:0] $end
$var wire 5 \" exp_max [4:0] $end
$var wire 5 ]" exp [4:0] $end
$var reg 16 ^" aligned_pp [15:0] $end
$var reg 5 _" exp_diff [4:0] $end
$var reg 15 `" pp_shifted [14:0] $end
$upscope $end
$scope module align5 $end
$var wire 5 a" signed_pp [4:0] $end
$var wire 5 b" exp_max [4:0] $end
$var wire 5 c" exp [4:0] $end
$var reg 16 d" aligned_pp [15:0] $end
$var reg 5 e" exp_diff [4:0] $end
$var reg 15 f" pp_shifted [14:0] $end
$upscope $end
$scope module align6 $end
$var wire 5 g" signed_pp [4:0] $end
$var wire 5 h" exp_max [4:0] $end
$var wire 5 i" exp [4:0] $end
$var reg 16 j" aligned_pp [15:0] $end
$var reg 5 k" exp_diff [4:0] $end
$var reg 15 l" pp_shifted [14:0] $end
$upscope $end
$scope module align7 $end
$var wire 5 m" signed_pp [4:0] $end
$var wire 5 n" exp_max [4:0] $end
$var wire 5 o" exp [4:0] $end
$var reg 16 p" aligned_pp [15:0] $end
$var reg 5 q" exp_diff [4:0] $end
$var reg 15 r" pp_shifted [14:0] $end
$upscope $end
$scope module align8 $end
$var wire 5 s" signed_pp [4:0] $end
$var wire 5 t" exp_max [4:0] $end
$var wire 5 u" exp [4:0] $end
$var reg 16 v" aligned_pp [15:0] $end
$var reg 5 w" exp_diff [4:0] $end
$var reg 15 x" pp_shifted [14:0] $end
$upscope $end
$scope module align_add $end
$var wire 16 y" aligned_pp_0_in [15:0] $end
$var wire 16 z" aligned_pp_1_in [15:0] $end
$var wire 16 {" aligned_pp_2_in [15:0] $end
$var wire 16 |" aligned_pp_3_in [15:0] $end
$var wire 16 }" aligned_pp_4_in [15:0] $end
$var wire 16 ~" aligned_pp_5_in [15:0] $end
$var wire 16 !# aligned_pp_6_in [15:0] $end
$var wire 16 "# aligned_pp_7_in [15:0] $end
$var wire 16 ## aligned_pp_8_in [15:0] $end
$var wire 1 " clk $end
$var wire 1 , rst $end
$var reg 16 $# aligned_pp_0_out [15:0] $end
$var reg 16 %# aligned_pp_1_out [15:0] $end
$var reg 16 &# aligned_pp_2_out [15:0] $end
$var reg 16 '# aligned_pp_3_out [15:0] $end
$var reg 16 (# aligned_pp_4_out [15:0] $end
$var reg 16 )# aligned_pp_5_out [15:0] $end
$var reg 16 *# aligned_pp_6_out [15:0] $end
$var reg 16 +# aligned_pp_7_out [15:0] $end
$var reg 16 ,# aligned_pp_8_out [15:0] $end
$upscope $end
$scope module in $end
$var wire 1 " clk $end
$var wire 5 -# exp_bias_in [4:0] $end
$var wire 72 .# image_in [71:0] $end
$var wire 1 , rst $end
$var wire 36 /# weight_in [35:0] $end
$var reg 5 0# exp_bias_out [4:0] $end
$var reg 72 1# image_out [71:0] $end
$var reg 36 2# weight_out [35:0] $end
$upscope $end
$scope module max_exp $end
$var wire 5 3# exp_8 [4:0] $end
$var wire 5 4# exp_7 [4:0] $end
$var wire 5 5# exp_6 [4:0] $end
$var wire 5 6# exp_5 [4:0] $end
$var wire 5 7# exp_4 [4:0] $end
$var wire 5 8# exp_3 [4:0] $end
$var wire 5 9# exp_2 [4:0] $end
$var wire 5 :# exp_1 [4:0] $end
$var wire 5 ;# exp_0 [4:0] $end
$var reg 5 <# exp012 [4:0] $end
$var reg 5 =# exp345 [4:0] $end
$var reg 5 ># exp678 [4:0] $end
$var reg 5 ?# exp_max [4:0] $end
$upscope $end
$scope module nor_sub $end
$var wire 1 " clk $end
$var wire 1 , rst $end
$var wire 1 L sign_in $end
$var wire 11 @# norm_sum_in [10:0] $end
$var wire 7 A# exp_final_in [6:0] $end
$var reg 7 B# exp_final_out [6:0] $end
$var reg 11 C# norm_sum_out [10:0] $end
$var reg 1 K sign_out $end
$upscope $end
$scope module normal $end
$var wire 6 D# exp_max [5:0] $end
$var wire 20 E# signed_sum [19:0] $end
$var reg 1 F# exp_carry $end
$var reg 5 G# exp_diff [4:0] $end
$var reg 7 H# exp_final [6:0] $end
$var reg 5 I# leading_one [4:0] $end
$var reg 11 J# norm_sum [10:0] $end
$var reg 11 K# shifted_sum [10:0] $end
$var reg 1 L sign $end
$var reg 11 L# temp [10:0] $end
$var reg 20 M# unsign_sum [19:0] $end
$var integer 32 N# i [31:0] $end
$upscope $end
$scope module ppg0 $end
$var wire 8 O# image [7:0] $end
$var wire 4 P# weight [3:0] $end
$var reg 5 Q# exp [4:0] $end
$var reg 1 R# image_zero $end
$var reg 1 S# sign $end
$var reg 5 T# signed_pp [4:0] $end
$var reg 1 U# weight_zero $end
$var reg 1 V# zero $end
$var integer 32 W# i [31:0] $end
$upscope $end
$scope module ppg1 $end
$var wire 8 X# image [7:0] $end
$var wire 4 Y# weight [3:0] $end
$var reg 5 Z# exp [4:0] $end
$var reg 1 [# image_zero $end
$var reg 1 \# sign $end
$var reg 5 ]# signed_pp [4:0] $end
$var reg 1 ^# weight_zero $end
$var reg 1 _# zero $end
$var integer 32 `# i [31:0] $end
$upscope $end
$scope module ppg2 $end
$var wire 8 a# image [7:0] $end
$var wire 4 b# weight [3:0] $end
$var reg 5 c# exp [4:0] $end
$var reg 1 d# image_zero $end
$var reg 1 e# sign $end
$var reg 5 f# signed_pp [4:0] $end
$var reg 1 g# weight_zero $end
$var reg 1 h# zero $end
$var integer 32 i# i [31:0] $end
$upscope $end
$scope module ppg3 $end
$var wire 8 j# image [7:0] $end
$var wire 4 k# weight [3:0] $end
$var reg 5 l# exp [4:0] $end
$var reg 1 m# image_zero $end
$var reg 1 n# sign $end
$var reg 5 o# signed_pp [4:0] $end
$var reg 1 p# weight_zero $end
$var reg 1 q# zero $end
$var integer 32 r# i [31:0] $end
$upscope $end
$scope module ppg4 $end
$var wire 8 s# image [7:0] $end
$var wire 4 t# weight [3:0] $end
$var reg 5 u# exp [4:0] $end
$var reg 1 v# image_zero $end
$var reg 1 w# sign $end
$var reg 5 x# signed_pp [4:0] $end
$var reg 1 y# weight_zero $end
$var reg 1 z# zero $end
$var integer 32 {# i [31:0] $end
$upscope $end
$scope module ppg5 $end
$var wire 8 |# image [7:0] $end
$var wire 4 }# weight [3:0] $end
$var reg 5 ~# exp [4:0] $end
$var reg 1 !$ image_zero $end
$var reg 1 "$ sign $end
$var reg 5 #$ signed_pp [4:0] $end
$var reg 1 $$ weight_zero $end
$var reg 1 %$ zero $end
$var integer 32 &$ i [31:0] $end
$upscope $end
$scope module ppg6 $end
$var wire 8 '$ image [7:0] $end
$var wire 4 ($ weight [3:0] $end
$var reg 5 )$ exp [4:0] $end
$var reg 1 *$ image_zero $end
$var reg 1 +$ sign $end
$var reg 5 ,$ signed_pp [4:0] $end
$var reg 1 -$ weight_zero $end
$var reg 1 .$ zero $end
$var integer 32 /$ i [31:0] $end
$upscope $end
$scope module ppg7 $end
$var wire 8 0$ image [7:0] $end
$var wire 4 1$ weight [3:0] $end
$var reg 5 2$ exp [4:0] $end
$var reg 1 3$ image_zero $end
$var reg 1 4$ sign $end
$var reg 5 5$ signed_pp [4:0] $end
$var reg 1 6$ weight_zero $end
$var reg 1 7$ zero $end
$var integer 32 8$ i [31:0] $end
$upscope $end
$scope module ppg8 $end
$var wire 8 9$ image [7:0] $end
$var wire 4 :$ weight [3:0] $end
$var reg 5 ;$ exp [4:0] $end
$var reg 1 <$ image_zero $end
$var reg 1 =$ sign $end
$var reg 5 >$ signed_pp [4:0] $end
$var reg 1 ?$ weight_zero $end
$var reg 1 @$ zero $end
$var integer 32 A$ i [31:0] $end
$upscope $end
$scope module ppg_align $end
$var wire 1 " clk $end
$var wire 5 B$ exp_0_in [4:0] $end
$var wire 5 C$ exp_1_in [4:0] $end
$var wire 5 D$ exp_2_in [4:0] $end
$var wire 5 E$ exp_3_in [4:0] $end
$var wire 5 F$ exp_4_in [4:0] $end
$var wire 5 G$ exp_5_in [4:0] $end
$var wire 5 H$ exp_6_in [4:0] $end
$var wire 5 I$ exp_7_in [4:0] $end
$var wire 5 J$ exp_8_in [4:0] $end
$var wire 5 K$ exp_bias_in [4:0] $end
$var wire 5 L$ exp_max_in [4:0] $end
$var wire 5 M$ pp_0_in [4:0] $end
$var wire 5 N$ pp_1_in [4:0] $end
$var wire 5 O$ pp_2_in [4:0] $end
$var wire 5 P$ pp_3_in [4:0] $end
$var wire 5 Q$ pp_4_in [4:0] $end
$var wire 5 R$ pp_5_in [4:0] $end
$var wire 5 S$ pp_6_in [4:0] $end
$var wire 5 T$ pp_7_in [4:0] $end
$var wire 5 U$ pp_8_in [4:0] $end
$var wire 1 , rst $end
$var reg 5 V$ exp_0_out [4:0] $end
$var reg 5 W$ exp_1_out [4:0] $end
$var reg 5 X$ exp_2_out [4:0] $end
$var reg 5 Y$ exp_3_out [4:0] $end
$var reg 5 Z$ exp_4_out [4:0] $end
$var reg 5 [$ exp_5_out [4:0] $end
$var reg 5 \$ exp_6_out [4:0] $end
$var reg 5 ]$ exp_7_out [4:0] $end
$var reg 5 ^$ exp_8_out [4:0] $end
$var reg 5 _$ exp_bias_out [4:0] $end
$var reg 5 `$ exp_max_out [4:0] $end
$var reg 5 a$ pp_0_out [4:0] $end
$var reg 5 b$ pp_1_out [4:0] $end
$var reg 5 c$ pp_2_out [4:0] $end
$var reg 5 d$ pp_3_out [4:0] $end
$var reg 5 e$ pp_4_out [4:0] $end
$var reg 5 f$ pp_5_out [4:0] $end
$var reg 5 g$ pp_6_out [4:0] $end
$var reg 5 h$ pp_7_out [4:0] $end
$var reg 5 i$ pp_8_out [4:0] $end
$upscope $end
$scope module sub $end
$var wire 7 j$ exp_final [6:0] $end
$var wire 11 k$ norm_sum [10:0] $end
$var wire 1 K sign $end
$var reg 6 l$ exp_final_unsign [5:0] $end
$var reg 16 m$ out [15:0] $end
$var reg 11 n$ temp [10:0] $end
$upscope $end
$upscope $end
$upscope $end
$upscope $end
$enddefinitions $end
#0
$dumpvars
bx n$
bx m$
bx l$
bx k$
bx j$
bx i$
bx h$
bx g$
bx f$
bx e$
bx d$
bx c$
bx b$
bx a$
bx `$
bx _$
bx ^$
bx ]$
bx \$
bx [$
bx Z$
bx Y$
bx X$
bx W$
bx V$
bx U$
bx T$
bx S$
bx R$
bx Q$
bx P$
bx O$
bx N$
bx M$
bx L$
b0 K$
bx J$
bx I$
bx H$
bx G$
bx F$
bx E$
bx D$
bx C$
bx B$
bx A$
x@$
x?$
bx >$
x=$
x<$
bx ;$
bx :$
bx 9$
bx 8$
x7$
x6$
bx 5$
x4$
x3$
bx 2$
bx 1$
bx 0$
bx /$
x.$
x-$
bx ,$
x+$
x*$
bx )$
bx ($
bx '$
bx &$
x%$
x$$
bx #$
x"$
x!$
bx ~#
bx }#
bx |#
bx {#
xz#
xy#
bx x#
xw#
xv#
bx u#
bx t#
bx s#
bx r#
xq#
xp#
bx o#
xn#
xm#
bx l#
bx k#
bx j#
bx i#
xh#
xg#
bx f#
xe#
xd#
bx c#
bx b#
bx a#
bx `#
x_#
x^#
bx ]#
x\#
x[#
bx Z#
bx Y#
bx X#
bx W#
xV#
xU#
bx T#
xS#
xR#
bx Q#
bx P#
bx O#
bx N#
bx M#
bx L#
bx K#
bx J#
bx I#
bx H#
bx G#
xF#
bx E#
bx D#
bx C#
bx B#
bx A#
bx @#
bx ?#
bx >#
bx =#
bx <#
bx ;#
bx :#
bx 9#
bx 8#
bx 7#
bx 6#
bx 5#
bx 4#
bx 3#
bx 2#
bx 1#
bx 0#
bx /#
bx .#
b0 -#
bx ,#
bx +#
bx *#
bx )#
bx (#
bx '#
bx &#
bx %#
bx $#
bx ##
bx "#
bx !#
bx ~"
bx }"
bx |"
bx {"
bx z"
bx y"
bx x"
bx w"
bx v"
bx u"
bx t"
bx s"
bx r"
bx q"
bx p"
bx o"
bx n"
bx m"
bx l"
bx k"
bx j"
bx i"
bx h"
bx g"
bx f"
bx e"
bx d"
bx c"
bx b"
bx a"
bx `"
bx _"
bx ^"
bx ]"
bx \"
bx ["
bx Z"
bx Y"
bx X"
bx W"
bx V"
bx U"
bx T"
bx S"
bx R"
bx Q"
bx P"
bx O"
bx N"
bx M"
bx L"
bx K"
bx J"
bx I"
bx H"
bx G"
bx F"
bx E"
bx D"
bx C"
bx B"
bx A"
bx @"
b0xxxxx ?"
bx >"
bx ="
bx <"
bx ;"
bx :"
bx 9"
bx 8"
bx 7"
bx 6"
bx 5"
bx 4"
bx 3"
bx 2"
bx 1"
bx 0"
bx /"
bx ."
bx -"
bx ,"
bx +"
bx *"
bx )"
bx ("
bx '"
bx &"
bx %"
bx $"
bx #"
bx ""
bx !"
bx ~
bx }
bx |
bx {
bx z
bx y
bx x
bx w
bx v
bx u
bx t
bx s
bx r
bx q
bx p
bx o
bx n
bx m
bx l
bx k
bx j
bx i
bx h
bx g
bx f
bx e
bx d
bx c
bx b
bx a
bx `
bx _
bx ^
bx ]
bx \
bx [
bx Z
bx Y
bx X
bx W
bx V
bx U
bx T
bx S
bx R
bx Q
bx P
bx O
bx N
bx M
xL
xK
bx J
bx I
bx H
bx G
bx F
bx E
b0 D
bx C
bx B
bx A
bx @
b0 ?
bx >
0=
0<
b0 ;
b0 :
09
x8
b0 7
b10110 6
bx 5
bx 4
b0 3
bx 2
bx 1
bx 0
bx /
bx101100000000000 .
b0 -
z,
b0 +
b0 *
b0 )
b0 (
1'
b0 &
b0 %
b0 $
0#
0"
bx101100000000000 !
$end
#1
0F#
b0 a
b0 @#
b0 J#
b10101 G#
b0 K#
b10011 N#
b0 I#
b0 1
b0 C
b0 F
b0 .#
08
b0 5
b0 4
b101100000000000 !
b101100000000000 .
b10110 6
b0 E
b0 0#
b0 _$
b0xxxxx c
b0xxxxx A"
b0xxxxx D#
b0 B
b0 A
b0 @
b0 2
1"
0'
#2
0"
1'
#3
b0 e
b0 ?#
b0 L$
b0 >#
b0 =#
b0 <#
b0 i
b0 3#
b0 ;$
b0 J$
b0 N
b0 >$
b0 U$
1@$
b111 A$
1<$
b0 k
b0 4#
b0 2$
b0 I$
b0 P
b0 5$
b0 T$
17$
b111 8$
13$
b0 m
b0 5#
b0 )$
b0 H$
b0 R
b0 ,$
b0 S$
1.$
b111 /$
1*$
b0 o
b0 6#
b0 ~#
b0 G$
b0 T
b0 #$
b0 R$
1%$
b111 &$
1!$
b0 q
b0 7#
b0 u#
b0 F$
b0 V
b0 x#
b0 Q$
1z#
b111 {#
1v#
b0 s
b0 8#
b0 l#
b0 E$
b0 X
b0 o#
b0 P$
1q#
b111 r#
1m#
b0 u
b0 9#
b0 c#
b0 D$
b0 Z
b0 f#
b0 O$
1h#
b111 i#
1d#
b0 w
b0 :#
b0 Z#
b0 C$
b0 \
b0 ]#
b0 N$
1_#
b111 `#
1[#
b0 y
b0 ;#
b0 Q#
b0 B$
b0 ^
b0 T#
b0 M$
1V#
b111 W#
1R#
x8
bx 5
bx 4
bx101100000000000 !
bx101100000000000 .
b10110 6
bx0000000000 0
bx0000000000 _
bx0000000000 m$
b0 9$
b0 0$
b0 '$
b0 |#
b0 s#
b0 j#
b0 a#
b0 X#
b0 O#
bx 2
b0 `
b0 C#
b0 k$
b0 b
b0 1#
1"
#4
0"
#5
bx101100000000000 !
bx101100000000000 .
b10110 6
b0 {
b0 v"
b0 ##
b0 x"
b0 w"
b0 }
b0 p"
b0 "#
b0 r"
b0 q"
b0 !"
b0 j"
b0 !#
b0 l"
b0 k"
b0 #"
b0 d"
b0 ~"
b0 f"
b0 e"
b0 %"
b0 ^"
b0 }"
b0 `"
b0 _"
b0 '"
b0 X"
b0 |"
b0 Z"
b0 Y"
b0 )"
b0 R"
b0 {"
b0 T"
b0 S"
b0 +"
b0 L"
b0 z"
b0 N"
b0 M"
b0 -"
b0 F"
b0 y"
b0 H"
b0 G"
bx0000000000 2
b0 ?"
b0 d
b0 D"
b0 J"
b0 P"
b0 V"
b0 \"
b0 b"
b0 h"
b0 n"
b0 t"
b0 `$
b0 h
b0 u"
b0 ^$
b0 j
b0 o"
b0 ]$
b0 l
b0 i"
b0 \$
b0 n
b0 c"
b0 [$
b0 p
b0 ]"
b0 Z$
b0 r
b0 W"
b0 Y$
b0 t
b0 Q"
b0 X$
b0 v
b0 K"
b0 W$
b0 x
b0 E"
b0 V$
b0 M
b0 s"
b0 i$
b0 O
b0 m"
b0 h$
b0 Q
b0 g"
b0 g$
b0 S
b0 a"
b0 f$
b0 U
b0 ["
b0 e$
b0 W
b0 U"
b0 d$
b0 Y
b0 O"
b0 c$
b0 [
b0 I"
b0 b$
b0 ]
b0 C"
b0 a$
1"
#6
1=
b1111 3
bx101100000000000 !
bx101100000000000 .
b10110 6
0"
19
1#
b1111 &
b1111 +
b11110 $
b11110 )
b11110 D
b11110 -#
b11110 K$
b100111000011011001101100000101111110 ;
b100111000011011001101100000101111110 (
b100111000011011001101100000101111110 -
b100111000011011001101100000101111110 :
b111111111111111111111111 %
b111111111111111111111111 *
b111111111111111111111111 ?
#7
b111111111111111111111111000000000000000000000000000000000000000000000000 1
b111111111111111111111111000000000000000000000000000000000000000000000000 C
b111111111111111111111111000000000000000000000000000000000000000000000000 F
b111111111111111111111111000000000000000000000000000000000000000000000000 .#
b1110101 g
b1110101 A#
b1110101 H#
b10011 N#
b0 J
b0 7"
b0 @"
b0 :"
b0 ="
b0 9"
b0 >"
b0 <"
b0 ;"
b0 8"
b100111000011011001101100000101111110 /
b100111000011011001101100000101111110 >
b100111000011011001101100000101111110 G
b100111000011011001101100000101111110 /#
b111111111111111111111111 @
b0 c
b0 A"
b0 D#
b0 z
b0 ."
b0 ,#
b0 |
b0 /"
b0 +#
b0 ~
b0 0"
b0 *#
b0 ""
b0 1"
b0 )#
b0 $"
b0 2"
b0 (#
b0 &"
b0 3"
b0 '#
b0 ("
b0 4"
b0 &#
b0 *"
b0 5"
b0 %#
b0 ,"
b0 6"
b0 $#
b11110 _$
b11110 E
b11110 0#
1<
1"
#8
0<
0"
#9
b10011 e
b10011 ?#
b10011 L$
b10011 <#
0?$
b111 A$
1=$
16$
b111 8$
04$
0-$
b111 /$
0+$
0$$
b111 &$
1"$
0y#
b111 {#
0w#
0p#
b111 r#
0n#
b10010 u
b10010 9#
b10010 c#
b10010 D$
b11111 Z
b11111 f#
b11111 O$
0h#
0g#
0d#
b111 i#
1e#
b10011 w
b10011 :#
b10011 Z#
b10011 C$
b1111 \
b1111 ]#
b1111 N$
0_#
0^#
0[#
b111 `#
0\#
b10000 y
b10000 ;#
b10000 Q#
b10000 B$
b1111 ^
b1111 T#
b1111 M$
0V#
0U#
0R#
b111 W#
0S#
b111111111111111111111111111111111111111111111111000000000000000000000000 1
b111111111111111111111111111111111111111111111111000000000000000000000000 C
b111111111111111111111111111111111111111111111111000000000000000000000000 F
b111111111111111111111111111111111111111111111111000000000000000000000000 .#
b1110 :$
b111 1$
b1 ($
b1100 }#
b110 t#
b110 k#
b11 b#
b1100 Y#
b1001 P#
b11111111 a#
b11111111 X#
b11111111 O#
b10011 N#
b0 M#
0L
bx000000000000000 0
bx000000000000000 _
bx000000000000000 m$
b0 n$
b1011 l$
b111111111111111111111111 A
b100111000011011001101100000101111110 H
b100111000011011001101100000101111110 2#
b111111111111111111111111000000000000000000000000000000000000000000000000 b
b111111111111111111111111000000000000000000000000000000000000000000000000 1#
b0 I
b0 B"
b0 E#
b1110101 f
b1110101 B#
b1110101 j$
1<
1"
#10
0<
0"
#11
b10101 e
b10101 ?#
b10101 L$
b10101 =#
b10011 o
b10011 6#
b10011 ~#
b10011 G$
b1111 T
b1111 #$
b1111 R$
0%$
0!$
b111 &$
0"$
b10101 q
b10101 7#
b10101 u#
b10101 F$
b11111 V
b11111 x#
b11111 Q$
0z#
0v#
b111 {#
1w#
b10101 s
b10101 8#
b10101 l#
b10101 E$
b11111 X
b11111 o#
b11111 P$
0q#
0m#
b111 r#
1n#
b1111111100 7
08
b11111111 5
b0 4
b101110101110101010110101111111111111111111111111111111111111111111111111 1
b101110101110101010110101111111111111111111111111111111111111111111111111 C
b101110101110101010110101111111111111111111111111111111111111111111111111 F
b101110101110101010110101111111111111111111111111111111111111111111111111 .#
b0 0
b0 _
b0 m$
b10011 Y"
b10011 _"
b10011 e"
b10011 k"
b10011 q"
b10011 w"
b1100010000000000 )"
b1100010000000000 R"
b1100010000000000 {"
b11110000000000 T"
b1 S"
b111100000000000 +"
b111100000000000 L"
b111100000000000 z"
b111100000000000 N"
b111100000000 -"
b111100000000 F"
b111100000000 y"
b111100000000 H"
b11 G"
b11111111 |#
b11111111 s#
b11111111 j#
b11110000011000010111000100001100110 /
b11110000011000010111000100001100110 >
b11110000011000010111000100001100110 G
b11110000011000010111000100001100110 /#
bx000000000000000 2
b101110101110101010110101 @
b111111111111111111111111 B
0K
b111 _$
b10011 ?"
b10011 d
b10011 D"
b10011 J"
b10011 P"
b10011 V"
b10011 \"
b10011 b"
b10011 h"
b10011 n"
b10011 t"
b10011 `$
b10010 t
b10010 Q"
b10010 X$
b10011 v
b10011 K"
b10011 W$
b10000 x
b10000 E"
b10000 V$
b11111 Y
b11111 O"
b11111 c$
b1111 [
b1111 I"
b1111 b$
b1111 ]
b1111 C"
b1111 a$
b111 E
b111 0#
b111111111111111111111111111111111111111111111111000000000000000000000000 b
b111111111111111111111111111111111111111111111111000000000000000000000000 1#
b11111111 3
b111101111111100 !
b111101111111100 .
b11110 6
1<
1"
b11111111 &
b11111111 +
b111 $
b111 )
b111 D
b111 -#
b111 K$
b11110000011000010111000100001100110 ;
b11110000011000010111000100001100110 (
b11110000011000010111000100001100110 -
b11110000011000010111000100001100110 :
b101110101110101010110101 %
b101110101110101010110101 *
b101110101110101010110101 ?
09
0#
#12
0=
0<
0"
