SD4_MAC/wave.vcd
$date
	Tue Nov 02 10:54:56 2021
$end
$version
	Icarus Verilog
$end
$timescale
	1s
$end
$scope module PE_tb $end
$var wire 16 ! psum_out [15:0] $end
$var reg 1 " clk $end
$var reg 1 # en $end
$var reg 5 $ exp_bias [4:0] $end
$var reg 24 % image [23:0] $end
$var reg 16 & psum [15:0] $end
$var reg 1 ' rst $end
$var reg 36 ( weight [35:0] $end
$scope module PE1 $end
$var wire 1 " clk $end
$var wire 1 # en $end
$var wire 5 ) exp_bias [4:0] $end
$var wire 24 * image_in [23:0] $end
$var wire 16 + psum [15:0] $end
$var wire 1 , rsk $end
$var wire 1 ' rst $end
$var wire 36 - weight [35:0] $end
$var wire 16 . psum_out [15:0] $end
$var wire 36 / o_weight [35:0] $end
$var wire 16 0 mac_out_w [15:0] $end
$var wire 72 1 image [71:0] $end
$var reg 16 2 mac_out [15:0] $end
$scope module clock_gating $end
$var wire 1 " clk $end
$var wire 1 # en $end
$var wire 1 3 en_w $end
$var wire 36 4 i_weight [35:0] $end
$var wire 36 5 i_weight_w [35:0] $end
$var reg 1 6 dff_clk $end
$var reg 1 7 en_r $end
$var reg 36 8 o_weight [35:0] $end
$upscope $end
$scope module img_buff $end
$var wire 1 " clk $end
$var wire 24 9 image_in [23:0] $end
$var wire 1 ' rst $end
$var reg 24 : image1 [23:0] $end
$var reg 24 ; image2 [23:0] $end
$var reg 24 < image3 [23:0] $end
$var reg 72 = image_out [71:0] $end
$upscope $end
$scope module mac $end
$var wire 1 " clk $end
$var wire 5 > exp_bias [4:0] $end
$var wire 5 ? exp_bias_out [4:0] $end
$var wire 72 @ image [71:0] $end
$var wire 1 , rst $end
$var wire 36 A weight [35:0] $end
$var wire 36 B weight_out [35:0] $end
$var wire 20 C signed_sum_out [19:0] $end
$var wire 20 D signed_sum [19:0] $end
$var wire 1 E sign_out $end
$var wire 1 F sign $end
$var wire 5 G pp_8_out [4:0] $end
$var wire 5 H pp_8 [4:0] $end
$var wire 5 I pp_7_out [4:0] $end
$var wire 5 J pp_7 [4:0] $end
$var wire 5 K pp_6_out [4:0] $end
$var wire 5 L pp_6 [4:0] $end
$var wire 5 M pp_5_out [4:0] $end
$var wire 5 N pp_5 [4:0] $end
$var wire 5 O pp_4_out [4:0] $end
$var wire 5 P pp_4 [4:0] $end
$var wire 5 Q pp_3_out [4:0] $end
$var wire 5 R pp_3 [4:0] $end
$var wire 5 S pp_2_out [4:0] $end
$var wire 5 T pp_2 [4:0] $end
$var wire 5 U pp_1_out [4:0] $end
$var wire 5 V pp_1 [4:0] $end
$var wire 5 W pp_0_out [4:0] $end
$var wire 5 X pp_0 [4:0] $end
$var wire 16 Y out [15:0] $end
$var wire 11 Z norm_sum_out [10:0] $end
$var wire 11 [ norm_sum [10:0] $end
$var wire 72 \ image_out [71:0] $end
$var wire 6 ] exp_max_out_out [5:0] $end
$var wire 5 ^ exp_max_out [4:0] $end
$var wire 5 _ exp_max [4:0] $end
$var wire 7 ` exp_final_out [6:0] $end
$var wire 7 a exp_final [6:0] $end
$var wire 5 b exp_8_out [4:0] $end
$var wire 5 c exp_8 [4:0] $end
$var wire 5 d exp_7_out [4:0] $end
$var wire 5 e exp_7 [4:0] $end
$var wire 5 f exp_6_out [4:0] $end
$var wire 5 g exp_6 [4:0] $end
$var wire 5 h exp_5_out [4:0] $end
$var wire 5 i exp_5 [4:0] $end
$var wire 5 j exp_4_out [4:0] $end
$var wire 5 k exp_4 [4:0] $end
$var wire 5 l exp_3_out [4:0] $end
$var wire 5 m exp_3 [4:0] $end
$var wire 5 n exp_2_out [4:0] $end
$var wire 5 o exp_2 [4:0] $end
$var wire 5 p exp_1_out [4:0] $end
$var wire 5 q exp_1 [4:0] $end
$var wire 5 r exp_0_out [4:0] $end
$var wire 5 s exp_0 [4:0] $end
$var wire 16 t aligned_pp_8_out [15:0] $end
$var wire 16 u aligned_pp_8 [15:0] $end
$var wire 16 v aligned_pp_7_out [15:0] $end
$var wire 16 w aligned_pp_7 [15:0] $end
$var wire 16 x aligned_pp_6_out [15:0] $end
$var wire 16 y aligned_pp_6 [15:0] $end
$var wire 16 z aligned_pp_5_out [15:0] $end
$var wire 16 { aligned_pp_5 [15:0] $end
$var wire 16 | aligned_pp_4_out [15:0] $end
$var wire 16 } aligned_pp_4 [15:0] $end
$var wire 16 ~ aligned_pp_3_out [15:0] $end
$var wire 16 !" aligned_pp_3 [15:0] $end
$var wire 16 "" aligned_pp_2_out [15:0] $end
$var wire 16 #" aligned_pp_2 [15:0] $end
$var wire 16 $" aligned_pp_1_out [15:0] $end
$var wire 16 %" aligned_pp_1 [15:0] $end
$var wire 16 &" aligned_pp_0_out [15:0] $end
$var wire 16 '" aligned_pp_0 [15:0] $end
$scope module add $end
$var wire 16 (" aligned_pp_8 [15:0] $end
$var wire 16 )" aligned_pp_7 [15:0] $end
$var wire 16 *" aligned_pp_6 [15:0] $end
$var wire 16 +" aligned_pp_5 [15:0] $end
$var wire 16 ," aligned_pp_4 [15:0] $end
$var wire 16 -" aligned_pp_3 [15:0] $end
$var wire 16 ." aligned_pp_2 [15:0] $end
$var wire 16 /" aligned_pp_1 [15:0] $end
$var wire 16 0" aligned_pp_0 [15:0] $end
$var reg 20 1" signed_sum [19:0] $end
$var reg 17 2" sum01 [16:0] $end
$var reg 18 3" sum0123 [17:0] $end
$var reg 19 4" sum01234567 [18:0] $end
$var reg 17 5" sum23 [16:0] $end
$var reg 17 6" sum45 [16:0] $end
$var reg 18 7" sum4567 [17:0] $end
$var reg 17 8" sum67 [16:0] $end
$upscope $end
$scope module add_nor $end
$var wire 1 " clk $end
$var wire 6 9" exp_max_in [5:0] $end
$var wire 1 , rst $end
$var wire 20 :" signed_sum_in [19:0] $end
$var reg 6 ;" exp_max_out [5:0] $end
$var reg 20 <" signed_sum_out [19:0] $end
$upscope $end
$scope module align0 $end
$var wire 5 =" signed_pp [4:0] $end
$var wire 5 >" exp_max [4:0] $end
$var wire 5 ?" exp [4:0] $end
$var reg 16 @" aligned_pp [15:0] $end
$var reg 5 A" exp_diff [4:0] $end
$var reg 15 B" pp_shifted [14:0] $end
$upscope $end
$scope module align1 $end
$var wire 5 C" signed_pp [4:0] $end
$var wire 5 D" exp_max [4:0] $end
$var wire 5 E" exp [4:0] $end
$var reg 16 F" aligned_pp [15:0] $end
$var reg 5 G" exp_diff [4:0] $end
$var reg 15 H" pp_shifted [14:0] $end
$upscope $end
$scope module align2 $end
$var wire 5 I" signed_pp [4:0] $end
$var wire 5 J" exp_max [4:0] $end
$var wire 5 K" exp [4:0] $end
$var reg 16 L" aligned_pp [15:0] $end
$var reg 5 M" exp_diff [4:0] $end
$var reg 15 N" pp_shifted [14:0] $end
$upscope $end
$scope module align3 $end
$var wire 5 O" signed_pp [4:0] $end
$var wire 5 P" exp_max [4:0] $end
$var wire 5 Q" exp [4:0] $end
$var reg 16 R" aligned_pp [15:0] $end
$var reg 5 S" exp_diff [4:0] $end
$var reg 15 T" pp_shifted [14:0] $end
$upscope $end
$scope module align4 $end
$var wire 5 U" signed_pp [4:0] $end
$var wire 5 V" exp_max [4:0] $end
$var wire 5 W" exp [4:0] $end
$var reg 16 X" aligned_pp [15:0] $end
$var reg 5 Y" exp_diff [4:0] $end
$var reg 15 Z" pp_shifted [14:0] $end
$upscope $end
$scope module align5 $end
$var wire 5 [" signed_pp [4:0] $end
$var wire 5 \" exp_max [4:0] $end
$var wire 5 ]" exp [4:0] $end
$var reg 16 ^" aligned_pp [15:0] $end
$var reg 5 _" exp_diff [4:0] $end
$var reg 15 `" pp_shifted [14:0] $end
$upscope $end
$scope module align6 $end
$var wire 5 a" signed_pp [4:0] $end
$var wire 5 b" exp_max [4:0] $end
$var wire 5 c" exp [4:0] $end
$var reg 16 d" aligned_pp [15:0] $end
$var reg 5 e" exp_diff [4:0] $end
$var reg 15 f" pp_shifted [14:0] $end
$upscope $end
$scope module align7 $end
$var wire 5 g" signed_pp [4:0] $end
$var wire 5 h" exp_max [4:0] $end
$var wire 5 i" exp [4:0] $end
$var reg 16 j" aligned_pp [15:0] $end
$var reg 5 k" exp_diff [4:0] $end
$var reg 15 l" pp_shifted [14:0] $end
$upscope $end
$scope module align8 $end
$var wire 5 m" signed_pp [4:0] $end
$var wire 5 n" exp_max [4:0] $end
$var wire 5 o" exp [4:0] $end
$var reg 16 p" aligned_pp [15:0] $end
$var reg 5 q" exp_diff [4:0] $end
$var reg 15 r" pp_shifted [14:0] $end
$upscope $end
$scope module align_add $end
$var wire 16 s" aligned_pp_0_in [15:0] $end
$var wire 16 t" aligned_pp_1_in [15:0] $end
$var wire 16 u" aligned_pp_2_in [15:0] $end
$var wire 16 v" aligned_pp_3_in [15:0] $end
$var wire 16 w" aligned_pp_4_in [15:0] $end
$var wire 16 x" aligned_pp_5_in [15:0] $end
$var wire 16 y" aligned_pp_6_in [15:0] $end
$var wire 16 z" aligned_pp_7_in [15:0] $end
$var wire 16 {" aligned_pp_8_in [15:0] $end
$var wire 1 " clk $end
$var wire 1 , rst $end
$var reg 16 |" aligned_pp_0_out [15:0] $end
$var reg 16 }" aligned_pp_1_out [15:0] $end
$var reg 16 ~" aligned_pp_2_out [15:0] $end
$var reg 16 !# aligned_pp_3_out [15:0] $end
$var reg 16 "# aligned_pp_4_out [15:0] $end
$var reg 16 ## aligned_pp_5_out [15:0] $end
$var reg 16 $# aligned_pp_6_out [15:0] $end
$var reg 16 %# aligned_pp_7_out [15:0] $end
$var reg 16 &# aligned_pp_8_out [15:0] $end
$upscope $end
$scope module in $end
$var wire 1 " clk $end
$var wire 5 '# exp_bias_in [4:0] $end
$var wire 72 (# image_in [71:0] $end
$var wire 1 , rst $end
$var wire 36 )# weight_in [35:0] $end
$var reg 5 *# exp_bias_out [4:0] $end
$var reg 72 +# image_out [71:0] $end
$var reg 36 ,# weight_out [35:0] $end
$upscope $end
$scope module max_exp $end
$var wire 5 -# exp_8 [4:0] $end
$var wire 5 .# exp_7 [4:0] $end
$var wire 5 /# exp_6 [4:0] $end
$var wire 5 0# exp_5 [4:0] $end
$var wire 5 1# exp_4 [4:0] $end
$var wire 5 2# exp_3 [4:0] $end
$var wire 5 3# exp_2 [4:0] $end
$var wire 5 4# exp_1 [4:0] $end
$var wire 5 5# exp_0 [4:0] $end
$var reg 5 6# exp01 [4:0] $end
$var reg 5 7# exp0123 [4:0] $end
$var reg 5 8# exp01234567 [4:0] $end
$var reg 5 9# exp23 [4:0] $end
$var reg 5 :# exp45 [4:0] $end
$var reg 5 ;# exp4567 [4:0] $end
$var reg 5 <# exp67 [4:0] $end
$var reg 5 =# exp_max [4:0] $end
$upscope $end
$scope module nor_sub $end
$var wire 1 " clk $end
$var wire 1 , rst $end
$var wire 1 F sign_in $end
$var wire 11 ># norm_sum_in [10:0] $end
$var wire 7 ?# exp_final_in [6:0] $end
$var reg 7 @# exp_final_out [6:0] $end
$var reg 11 A# norm_sum_out [10:0] $end
$var reg 1 E sign_out $end
$upscope $end
$scope module normal $end
$var wire 6 B# exp_max [5:0] $end
$var wire 20 C# signed_sum [19:0] $end
$var reg 1 D# exp_carry $end
$var reg 5 E# exp_diff [4:0] $end
$var reg 7 F# exp_final [6:0] $end
$var reg 5 G# leading_one [4:0] $end
$var reg 11 H# norm_sum [10:0] $end
$var reg 11 I# shifted_sum [10:0] $end
$var reg 1 F sign $end
$var reg 11 J# temp [10:0] $end
$var reg 20 K# unsign_sum [19:0] $end
$var integer 32 L# i [31:0] $end
$upscope $end
$scope module ppg0 $end
$var wire 8 M# image [7:0] $end
$var wire 4 N# weight [3:0] $end
$var reg 5 O# exp [4:0] $end
$var reg 1 P# image_zero $end
$var reg 1 Q# sign $end
$var reg 5 R# signed_pp [4:0] $end
$var reg 1 S# weight_zero $end
$var reg 1 T# zero $end
$var integer 32 U# i [31:0] $end
$upscope $end
$scope module ppg1 $end
$var wire 8 V# image [7:0] $end
$var wire 4 W# weight [3:0] $end
$var reg 5 X# exp [4:0] $end
$var reg 1 Y# image_zero $end
$var reg 1 Z# sign $end
$var reg 5 [# signed_pp [4:0] $end
$var reg 1 \# weight_zero $end
$var reg 1 ]# zero $end
$var integer 32 ^# i [31:0] $end
$upscope $end
$scope module ppg2 $end
$var wire 8 _# image [7:0] $end
$var wire 4 `# weight [3:0] $end
$var reg 5 a# exp [4:0] $end
$var reg 1 b# image_zero $end
$var reg 1 c# sign $end
$var reg 5 d# signed_pp [4:0] $end
$var reg 1 e# weight_zero $end
$var reg 1 f# zero $end
$var integer 32 g# i [31:0] $end
$upscope $end
$scope module ppg3 $end
$var wire 8 h# image [7:0] $end
$var wire 4 i# weight [3:0] $end
$var reg 5 j# exp [4:0] $end
$var reg 1 k# image_zero $end
$var reg 1 l# sign $end
$var reg 5 m# signed_pp [4:0] $end
$var reg 1 n# weight_zero $end
$var reg 1 o# zero $end
$var integer 32 p# i [31:0] $end
$upscope $end
$scope module ppg4 $end
$var wire 8 q# image [7:0] $end
$var wire 4 r# weight [3:0] $end
$var reg 5 s# exp [4:0] $end
$var reg 1 t# image_zero $end
$var reg 1 u# sign $end
$var reg 5 v# signed_pp [4:0] $end
$var reg 1 w# weight_zero $end
$var reg 1 x# zero $end
$var integer 32 y# i [31:0] $end
$upscope $end
$scope module ppg5 $end
$var wire 8 z# image [7:0] $end
$var wire 4 {# weight [3:0] $end
$var reg 5 |# exp [4:0] $end
$var reg 1 }# image_zero $end
$var reg 1 ~# sign $end
$var reg 5 !$ signed_pp [4:0] $end
$var reg 1 "$ weight_zero $end
$var reg 1 #$ zero $end
$var integer 32 $$ i [31:0] $end
$upscope $end
$scope module ppg6 $end
$var wire 8 %$ image [7:0] $end
$var wire 4 &$ weight [3:0] $end
$var reg 5 '$ exp [4:0] $end
$var reg 1 ($ image_zero $end
$var reg 1 )$ sign $end
$var reg 5 *$ signed_pp [4:0] $end
$var reg 1 +$ weight_zero $end
$var reg 1 ,$ zero $end
$var integer 32 -$ i [31:0] $end
$upscope $end
$scope module ppg7 $end
$var wire 8 .$ image [7:0] $end
$var wire 4 /$ weight [3:0] $end
$var reg 5 0$ exp [4:0] $end
$var reg 1 1$ image_zero $end
$var reg 1 2$ sign $end
$var reg 5 3$ signed_pp [4:0] $end
$var reg 1 4$ weight_zero $end
$var reg 1 5$ zero $end
$var integer 32 6$ i [31:0] $end
$upscope $end
$scope module ppg8 $end
$var wire 8 7$ image [7:0] $end
$var wire 4 8$ weight [3:0] $end
$var reg 5 9$ exp [4:0] $end
$var reg 1 :$ image_zero $end
$var reg 1 ;$ sign $end
$var reg 5 <$ signed_pp [4:0] $end
$var reg 1 =$ weight_zero $end
$var reg 1 >$ zero $end
$var integer 32 ?$ i [31:0] $end
$upscope $end
$scope module ppg_align $end
$var wire 1 " clk $end
$var wire 5 @$ exp_0_in [4:0] $end
$var wire 5 A$ exp_1_in [4:0] $end
$var wire 5 B$ exp_2_in [4:0] $end
$var wire 5 C$ exp_3_in [4:0] $end
$var wire 5 D$ exp_4_in [4:0] $end
$var wire 5 E$ exp_5_in [4:0] $end
$var wire 5 F$ exp_6_in [4:0] $end
$var wire 5 G$ exp_7_in [4:0] $end
$var wire 5 H$ exp_8_in [4:0] $end
$var wire 5 I$ exp_bias_in [4:0] $end
$var wire 5 J$ exp_max_in [4:0] $end
$var wire 5 K$ pp_0_in [4:0] $end
$var wire 5 L$ pp_1_in [4:0] $end
$var wire 5 M$ pp_2_in [4:0] $end
$var wire 5 N$ pp_3_in [4:0] $end
$var wire 5 O$ pp_4_in [4:0] $end
$var wire 5 P$ pp_5_in [4:0] $end
$var wire 5 Q$ pp_6_in [4:0] $end
$var wire 5 R$ pp_7_in [4:0] $end
$var wire 5 S$ pp_8_in [4:0] $end
$var wire 1 , rst $end
$var reg 5 T$ exp_0_out [4:0] $end
$var reg 5 U$ exp_1_out [4:0] $end
$var reg 5 V$ exp_2_out [4:0] $end
$var reg 5 W$ exp_3_out [4:0] $end
$var reg 5 X$ exp_4_out [4:0] $end
$var reg 5 Y$ exp_5_out [4:0] $end
$var reg 5 Z$ exp_6_out [4:0] $end
$var reg 5 [$ exp_7_out [4:0] $end
$var reg 5 \$ exp_8_out [4:0] $end
$var reg 5 ]$ exp_bias_out [4:0] $end
$var reg 5 ^$ exp_max_out [4:0] $end
$var reg 5 _$ pp_0_out [4:0] $end
$var reg 5 `$ pp_1_out [4:0] $end
$var reg 5 a$ pp_2_out [4:0] $end
$var reg 5 b$ pp_3_out [4:0] $end
$var reg 5 c$ pp_4_out [4:0] $end
$var reg 5 d$ pp_5_out [4:0] $end
$var reg 5 e$ pp_6_out [4:0] $end
$var reg 5 f$ pp_7_out [4:0] $end
$var reg 5 g$ pp_8_out [4:0] $end
$upscope $end
$scope module sub $end
$var wire 7 h$ exp_final [6:0] $end
$var wire 11 i$ norm_sum [10:0] $end
$var wire 1 E sign $end
$var reg 6 j$ exp_final_unsign [5:0] $end
$var reg 16 k$ out [15:0] $end
$var reg 11 l$ temp [10:0] $end
$upscope $end
$upscope $end
$upscope $end
$upscope $end
$enddefinitions $end
#0
$dumpvars
bx l$
bx k$
bx j$
bx i$
bx h$
bx g$
bx f$
bx e$
bx d$
bx c$
bx b$
bx a$
bx `$
bx _$
bx ^$
bx ]$
bx \$
bx [$
bx Z$
bx Y$
bx X$
bx W$
bx V$
bx U$
bx T$
bx S$
bx R$
bx Q$
bx P$
bx O$
bx N$
bx M$
bx L$
bx K$
bx J$
b0 I$
bx H$
bx G$
bx F$
bx E$
bx D$
bx C$
bx B$
bx A$
bx @$
bx ?$
x>$
x=$
bx <$
x;$
x:$
bx 9$
bx 8$
bx 7$
bx 6$
x5$
x4$
bx 3$
x2$
x1$
bx 0$
bx /$
bx .$
bx -$
x,$
x+$
bx *$
x)$
x($
bx '$
bx &$
bx %$
bx $$
x#$
x"$
bx !$
x~#
x}#
bx |#
bx {#
bx z#
bx y#
xx#
xw#
bx v#
xu#
xt#
bx s#
bx r#
bx q#
bx p#
xo#
xn#
bx m#
xl#
xk#
bx j#
bx i#
bx h#
bx g#
xf#
xe#
bx d#
xc#
xb#
bx a#
bx `#
bx _#
bx ^#
x]#
x\#
bx [#
xZ#
xY#
bx X#
bx W#
bx V#
bx U#
xT#
xS#
bx R#
xQ#
xP#
bx O#
bx N#
bx M#
bx L#
bx K#
bx J#
bx I#
bx H#
bx G#
bx F#
bx E#
xD#
bx C#
bx B#
bx A#
bx @#
bx ?#
bx >#
bx =#
bx <#
bx ;#
bx :#
bx 9#
bx 8#
bx 7#
bx 6#
bx 5#
bx 4#
bx 3#
bx 2#
bx 1#
bx 0#
bx /#
bx .#
bx -#
bx ,#
bx +#
bx *#
bx )#
bx (#
b0 '#
bx &#
bx %#
bx $#
bx ##
bx "#
bx !#
bx ~"
bx }"
bx |"
bx {"
bx z"
bx y"
bx x"
bx w"
bx v"
bx u"
bx t"
bx s"
bx r"
bx q"
bx p"
bx o"
bx n"
bx m"
bx l"
bx k"
bx j"
bx i"
bx h"
bx g"
bx f"
bx e"
bx d"
bx c"
bx b"
bx a"
bx `"
bx _"
bx ^"
bx ]"
bx \"
bx ["
bx Z"
bx Y"
bx X"
bx W"
bx V"
bx U"
bx T"
bx S"
bx R"
bx Q"
bx P"
bx O"
bx N"
bx M"
bx L"
bx K"
bx J"
bx I"
bx H"
bx G"
bx F"
bx E"
bx D"
bx C"
bx B"
bx A"
bx @"
bx ?"
bx >"
bx ="
bx <"
bx ;"
bx :"
b0xxxxx 9"
bx 8"
bx 7"
bx 6"
bx 5"
bx 4"
bx 3"
bx 2"
bx 1"
bx 0"
bx /"
bx ."
bx -"
bx ,"
bx +"
bx *"
bx )"
bx ("
bx '"
bx &"
bx %"
bx $"
bx #"
bx ""
bx !"
bx ~
bx }
bx |
bx {
bx z
bx y
bx x
bx w
bx v
bx u
bx t
bx s
bx r
bx q
bx p
bx o
bx n
bx m
bx l
bx k
bx j
bx i
bx h
bx g
bx f
bx e
bx d
bx c
bx b
bx a
bx `
bx _
bx ^
bx ]
bx \
bx [
bx Z
bx Y
bx X
bx W
bx V
bx U
bx T
bx S
bx R
bx Q
bx P
bx O
bx N
bx M
bx L
bx K
bx J
bx I
bx H
bx G
xF
xE
bx D
bx C
bx B
bx A
bx @
bx ?
b0 >
bx =
bx <
bx ;
bx :
b0 9
bx 8
07
06
b0 5
b0 4
03
bx 2
bx 1
bx 0
bx /
bx .
b0 -
z,
b0 +
b0 *
b0 )
b0 (
1'
b0 &
b0 %
b0 $
0#
0"
bx !
$end
#1
0D#
b0 [
b0 >#
b0 H#
b10101 E#
b0 I#
b10011 L#
b0 G#
b0 1
b0 =
b0 @
b0 (#
b0 ?
b0 *#
b0 ]$
b0xxxxx ]
b0xxxxx ;"
b0xxxxx B#
b0 <
b0 ;
b0 :
b0 !
b0 .
b0 2
1"
0'
#2
0"
1'
#3
b0 _
b0 =#
b0 J$
b0 8#
b0 ;#
b0 7#
b0 <#
b0 :#
b0 9#
b0 6#
b0 c
b0 -#
b0 9$
b0 H$
b0 H
b0 <$
b0 S$
1>$
b111 ?$
1:$
b0 e
b0 .#
b0 0$
b0 G$
b0 J
b0 3$
b0 R$
15$
b111 6$
11$
b0 g
b0 /#
b0 '$
b0 F$
b0 L
b0 *$
b0 Q$
1,$
b111 -$
1($
b0 i
b0 0#
b0 |#
b0 E$
b0 N
b0 !$
b0 P$
1#$
b111 $$
1}#
b0 k
b0 1#
b0 s#
b0 D$
b0 P
b0 v#
b0 O$
1x#
b111 y#
1t#
b0 m
b0 2#
b0 j#
b0 C$
b0 R
b0 m#
b0 N$
1o#
b111 p#
1k#
b0 o
b0 3#
b0 a#
b0 B$
b0 T
b0 d#
b0 M$
1f#
b111 g#
1b#
b0 q
b0 4#
b0 X#
b0 A$
b0 V
b0 [#
b0 L$
1]#
b111 ^#
1Y#
b0 s
b0 5#
b0 O#
b0 @$
b0 X
b0 R#
b0 K$
1T#
b111 U#
1P#
bx0000000000 0
bx0000000000 Y
bx0000000000 k$
b0 7$
b0 .$
b0 %$
b0 z#
b0 q#
b0 h#
b0 _#
b0 V#
b0 M#
bx !
bx .
bx 2
b0 Z
b0 A#
b0 i$
b0 \
b0 +#
1"
#4
0"
#5
b0 u
b0 p"
b0 {"
b0 r"
b0 q"
b0 w
b0 j"
b0 z"
b0 l"
b0 k"
b0 y
b0 d"
b0 y"
b0 f"
b0 e"
b0 {
b0 ^"
b0 x"
b0 `"
b0 _"
b0 }
b0 X"
b0 w"
b0 Z"
b0 Y"
b0 !"
b0 R"
b0 v"
b0 T"
b0 S"
b0 #"
b0 L"
b0 u"
b0 N"
b0 M"
b0 %"
b0 F"
b0 t"
b0 H"
b0 G"
b0 '"
b0 @"
b0 s"
b0 B"
b0 A"
bx0000000000 2
b0 9"
b0 ^
b0 >"
b0 D"
b0 J"
b0 P"
b0 V"
b0 \"
b0 b"
b0 h"
b0 n"
b0 ^$
b0 b
b0 o"
b0 \$
b0 d
b0 i"
b0 [$
b0 f
b0 c"
b0 Z$
b0 h
b0 ]"
b0 Y$
b0 j
b0 W"
b0 X$
b0 l
b0 Q"
b0 W$
b0 n
b0 K"
b0 V$
b0 p
b0 E"
b0 U$
b0 r
b0 ?"
b0 T$
b0 G
b0 m"
b0 g$
b0 I
b0 g"
b0 f$
b0 K
b0 a"
b0 e$
b0 M
b0 ["
b0 d$
b0 O
b0 U"
b0 c$
b0 Q
b0 O"
b0 b$
b0 S
b0 I"
b0 a$
b0 U
b0 C"
b0 `$
b0 W
b0 ="
b0 _$
1"
#6
0"
b1111 &
b1111 +
b11110 $
b11110 )
b11110 >
b11110 '#
b11110 I$
b100111000011011001101100000101111110 5
b100111000011011001101100000101111110 (
b100111000011011001101100000101111110 -
b100111000011011001101100000101111110 4
b100111101000010011110 %
b100111101000010011110 *
b100111101000010011110 9
#7
b0 D
b0 1"
b0 :"
b0 4"
b0 7"
b0 3"
b0 8"
b0 6"
b0 5"
b0 2"
b100111101000010011110000000000000000000000000000000000000000000000000 1
b100111101000010011110000000000000000000000000000000000000000000000000 =
b100111101000010011110000000000000000000000000000000000000000000000000 @
b100111101000010011110000000000000000000000000000000000000000000000000 (#
b1110101 a
b1110101 ?#
b1110101 F#
b10011 L#
b100111101000010011110 :
b0 ]
b0 ;"
b0 B#
b0 t
b0 ("
b0 &#
b0 v
b0 )"
b0 %#
b0 x
b0 *"
b0 $#
b0 z
b0 +"
b0 ##
b0 |
b0 ,"
b0 "#
b0 ~
b0 -"
b0 !#
b0 ""
b0 ."
b0 ~"
b0 $"
b0 /"
b0 }"
b0 &"
b0 0"
b0 |"
b11110 ]$
b11110 ?
b11110 *#
1"
#8
0"
#9
bx _
bx =#
bx J$
bx 8#
bx 7#
bx 9#
bx 6#
bx o
bx 3#
bx a#
bx B$
bx1110 T
bx1110 d#
bx1110 M$
xf#
0b#
b111 g#
bx q
bx 4#
bx X#
bx A$
bx1000 V
bx1000 [#
bx1000 L$
x]#
0Y#
b111 ^#
bx s
bx 5#
bx O#
bx @$
bx1011 X
bx1011 R#
bx1011 K$
xT#
0P#
b111 U#
b100111101000010011110000100111101000010011110000000000000000000000000 1
b100111101000010011110000100111101000010011110000000000000000000000000 =
b100111101000010011110000100111101000010011110000000000000000000000000 @
b100111101000010011110000100111101000010011110000000000000000000000000 (#
b10011110 _#
b11010000 V#
b10011 M#
b10011 L#
b0 K#
0F
bx000000000000000 0
bx000000000000000 Y
bx000000000000000 k$
b0 l$
b1011 j$
b100111101000010011110 ;
b100111101000010011110000000000000000000000000000000000000000000000000 \
b100111101000010011110000000000000000000000000000000000000000000000000 +#
b0 C
b0 <"
b0 C#
b1110101 `
b1110101 @#
b1110101 h$
1"
#10
0"
#11
bx ;#
bx :#
bx i
bx 0#
bx |#
bx E$
bx1110 N
bx1110 !$
bx1110 P$
x#$
0}#
b111 $$
bx k
bx 1#
bx s#
bx D$
bx1000 P
bx1000 v#
bx1000 O$
xx#
0t#
b111 y#
bx m
bx 2#
bx j#
bx C$
bx1011 R
bx1011 m#
bx1011 N$
xo#
0k#
b111 p#
b101011101101101100100010000100111101000010011110000100111101000010011110 1
b101011101101101100100010000100111101000010011110000100111101000010011110 =
b101011101101101100100010000100111101000010011110000100111101000010011110 @
b101011101101101100100010000100111101000010011110000100111101000010011110 (#
b0 0
b0 Y
b0 k$
b0xxxxxxxxxxxxxxx !"
b0xxxxxxxxxxxxxxx R"
b0xxxxxxxxxxxxxxx v"
bx T"
bx S"
b0xxxxxxxxxxxxxxx }
b0xxxxxxxxxxxxxxx X"
b0xxxxxxxxxxxxxxx w"
bx Z"
bx Y"
b0xxxxxxxxxxxxxxx {
b0xxxxxxxxxxxxxxx ^"
b0xxxxxxxxxxxxxxx x"
bx `"
bx _"
b0xxxxxxxxxxxxxxx y
b0xxxxxxxxxxxxxxx d"
b0xxxxxxxxxxxxxxx y"
bx f"
bx e"
b0xxxxxxxxxxxxxxx w
b0xxxxxxxxxxxxxxx j"
b0xxxxxxxxxxxxxxx z"
bx l"
bx k"
b0xxxxxxxxxxxxxxx u
b0xxxxxxxxxxxxxxx p"
b0xxxxxxxxxxxxxxx {"
bx r"
bx q"
bx #"
bx L"
bx u"
bx N"
bx M"
bx %"
bx F"
bx t"
bx H"
bx G"
bx '"
bx @"
bx s"
bx B"
bx A"
b10011110 z#
b11010000 q#
b10011 h#
bx000000000000000 2
b101011101101101100100010 :
b100111101000010011110 <
0E
b111 ]$
b0xxxxx 9"
bx ^
bx >"
bx D"
bx J"
bx P"
bx V"
bx \"
bx b"
bx h"
bx n"
bx ^$
bx n
bx K"
bx V$
bx p
bx E"
bx U$
bx r
bx ?"
bx T$
bx1110 S
bx1110 I"
bx1110 a$
bx1000 U
bx1000 C"
bx1000 `$
bx1011 W
bx1011 ="
bx1011 _$
b111 ?
b111 *#
b100111101000010011110000100111101000010011110000000000000000000000000 \
b100111101000010011110000100111101000010011110000000000000000000000000 +#
1"
b111 $
b111 )
b111 >
b111 '#
b111 I$
b11110000011000010111000100001100110 5
b11110000011000010111000100001100110 (
b11110000011000010111000100001100110 -
b11110000011000010111000100001100110 4
b101011101101101100100010 %
b101011101101101100100010 *
b101011101101101100100010 9
#12
0"
